module codeberg.org/squel/url-rewrite

go 1.21

require github.com/urfave/cli/v2 v2.27.1

require (
	github.com/cpuguy83/go-md2man/v2 v2.0.2 // indirect
	github.com/russross/blackfriday/v2 v2.1.0 // indirect
	github.com/xrash/smetrics v0.0.0-20201216005158-039620a65673 // indirect
)
